<svg width="1975" height="1694" viewBox="0 0 1975 1694" fill="none" xmlns="http://www.w3.org/2000/svg">
<g clip-path="url(#clip0)">
<path d="M492.895 -39.4005C512.277 -44.8958 534.671 -40.827 543.341 -35.0844C552.863 -29.405 558.701 -19.1261 561.553 -8.67382C561.961 -6.44905 564.015 -5.18927 565.4 -3.58472C570.057 1.44037 565.998 -4.1149 569.541 12.6683C572.096 13.6139 569.359 20.6431 569.429 24.9752C569.297 33.0127 569.001 41.0415 568.756 49.0743C573.39 52.9376 573.195 63.8048 575.766 67.5354C576.974 69.4447 576.834 69.5274 581.538 83.5723C630.858 64.0929 674.561 96.6969 686.501 96.3741C688.455 96.4075 689.911 97.8833 690.435 99.6839C688.239 104.652 683.52 107.933 681.391 112.947C679.591 117.93 681.398 120.643 681.653 131.632C687.05 136.061 702.871 153.173 707.708 158.492C709.694 161.141 712.101 160.052 713.621 163.798C713.878 167.305 705.489 166.026 703.845 165.918C702.35 177.916 698.47 175.442 690.148 181.572C687.428 183.556 686.053 186.986 683.063 188.628C676.347 192.308 663.443 165.188 654.106 163.839C644.454 161.872 640.063 164.666 630.18 168.612C613.991 175.647 621.476 174.297 614.142 180.799C613.398 181.705 612.836 182.741 612.171 183.705C612.545 185.593 614.196 186.67 615.439 187.971C620.782 193.362 623.104 197.967 623.211 198.084C639.089 216.186 639.706 233.993 632.172 246.714C630.084 250.106 627.369 253.051 624.671 255.952C630.079 285.904 624.413 280.412 638.563 309.078C639.686 311.048 640.335 313.464 642.397 314.703C642.817 314.358 643.245 314.017 643.682 313.684C645.582 315.36 646.68 317.655 647.175 320.113C646.588 320.816 646.006 321.518 645.433 322.229C645.661 322.661 645.903 323.098 646.148 323.543C648.158 324.075 649.582 323.646 648.909 327.555C655.453 339.6 661.815 351.754 669.138 363.354C670.468 362.746 676.942 359.06 675.949 364.177C680.415 371.22 684.964 378.214 689.721 385.066C698.838 379.937 700.479 379.858 702.174 381.411C702.719 382.729 701.509 384.06 701.879 385.423C702.915 392.605 704.159 402.26 707.443 406.479C708.632 406.57 709.779 407.269 709.359 408.637C710.027 409.253 722.609 418.407 725.95 423.401C727.559 425.655 729.189 427.917 731.402 429.638C732.159 428.544 733.194 427.493 734.645 427.647C735.214 427.239 735.759 426.748 736.437 426.512C737.065 426.512 737.613 426.89 738.2 427.107C740.204 423.951 742.175 420.774 744.15 417.602C732.796 386.088 727.727 378.887 735.547 345.526C738.12 333.105 749.586 321.237 750.15 320.57C751.634 318.622 764.576 310.946 765.922 310.175C759.682 324.822 750.657 323.005 748.288 345.571C748.262 358.671 755.394 364.699 756.907 367.94C767.353 390.168 767.052 389.183 767.369 390.322C767.181 392.397 766.687 394.434 766.408 396.501C770.425 397.964 774.35 399.723 778.417 401.033C805.262 399.804 820.652 387.876 836.107 365.321C894.876 361.289 861.45 372.86 1070.94 283.789C1116.69 263.846 1101.86 266.283 1221.24 215.33C1341.14 164.739 1281.28 184.397 1489 127.682C1486.21 129.319 1337.65 216.465 1334.66 217.7C1036 349.771 1247.58 243.834 900.753 397.058C893.842 400.521 903.279 392.636 864.943 427.34C853.496 425.575 848.76 423.876 829.171 427.061C814.799 431.008 816.141 431.591 809.028 435.131C806.814 436.15 798.575 443.488 797.527 445.306C796.275 447.339 794.987 449.351 793.731 451.38C800.67 460.553 795.298 449.613 808.359 477.77C810.841 483.28 810.604 501.628 841.079 509.628C844.813 510.642 848.734 510.006 852.534 510.522C855.128 511.058 857.707 511.686 860.297 512.272C860.168 512.501 859.91 512.963 859.782 513.191C859.113 513.393 844.221 517.487 841.644 517.341C840.977 517.307 823.943 517.653 812.296 511.699C791.288 501.403 778.141 490.531 762.69 458.104C758.511 457.127 754.32 456.229 750.132 455.322C749.53 456.574 748.39 457.693 746.889 457.472C746.407 457.829 745.937 458.199 745.479 458.574C749.864 470.256 751.447 482.224 739.337 477.247C736.386 481.534 731.929 482.841 725.512 472.977C722.863 476.054 721.053 480.793 715.366 479.592C713.952 479.279 713.154 477.991 712.119 477.126C711.82 477.172 711.221 477.267 710.921 477.313C711.67 484.625 708.903 485.265 705.649 485.218C702.114 484.949 701.992 484.847 698.834 478.707C694.577 478.309 694.077 479.063 691.769 472.561C673.781 480.05 655.784 487.534 637.971 495.442C638.894 513.135 689.961 619.254 643.319 579.763C644.544 589.198 647.408 615.64 646.994 624.564C651.552 618.737 655.147 619.338 656.653 619.267C661.979 620.464 672.772 631.83 670.183 638.975C668.886 640.493 667.314 641.861 665.414 642.555C653.644 659.855 662.484 664.37 665.734 671.935C672.217 683.267 682.174 719.856 668.287 733.741C674.248 750.797 673.262 765.597 668.587 769.961C666.195 773.923 657.638 773.237 653.094 772.098C653.791 777.749 654.127 785.555 649.684 788.01C650.21 791.462 653.707 805.028 648.778 809.993C650.321 815.811 655.004 828.494 650.079 831.888C652.75 845.378 656.286 848.47 654.753 854.199C654.13 854.652 653.51 855.106 652.894 855.571C655.442 860.952 659.445 870.777 658.254 876.585C670.163 896.25 671.247 891.907 671.61 898.393C671.02 898.71 670.437 899.038 669.859 899.379C666.869 910.202 670.257 916.102 673.519 930.235C674.841 934.376 675.91 938.688 678.305 942.384C682.211 939.374 683.213 936.168 685.353 935.844C688.583 936.357 686.511 940.743 688.077 944.904C689.437 948.658 691.179 952.313 693.516 955.569C697.597 947.889 701.075 948.364 706.921 951.764C713.602 955.312 714.766 960.344 715.774 961.593C720.397 966.735 723.956 965.871 729.3 970.171C749.53 985.32 751.22 981.702 751.039 993.547C751.442 994.12 752.008 994.661 752.17 995.393C751.2 1001.71 714.735 1002.64 710.709 1002.86C706.601 1003.37 688.588 1006.79 681.228 1005.56C680.543 1005.45 664.894 1003.96 661.955 998.349C660.949 996.48 650.007 992.235 648.611 988C647.946 986.557 648.258 984.956 648.341 983.447C633.623 975.288 617.357 971.534 605.246 961.934C603.184 960.396 601.882 958.072 599.766 956.608C596.05 953.915 586.341 946.131 586.61 941.773C586.752 935.956 586.477 929.993 588.216 924.368C590.401 917.922 596.437 911.466 593.014 898.548C592.554 896.549 589.811 885.842 588.203 883.434C580.652 869.434 584.095 867.639 596.723 872.411C593.418 860.601 590.199 856.508 590.266 838.296C590.266 838.296 583.144 825.851 579.621 816.712C578.18 812.265 575.841 816.768 574.016 802.966C572.943 791.85 574.427 794.668 572.594 791.274C572.188 790.607 566.593 777.107 565.4 771.096C565.03 769.399 565.43 767.699 565.962 766.09C559.944 759.473 559.176 734.3 569.633 726.274C567.01 715.673 565.355 687.897 565.355 687.897C564.004 685.149 561.933 682.637 561.579 679.506C561.784 678.155 562.344 676.89 562.765 675.606C562.041 674.225 561.434 672.72 561.974 671.161C549.403 653.652 542.226 644.593 525.587 584.062C524.252 583.767 523.104 583.035 522.098 582.145C522.094 581.572 522.094 581.006 522.098 580.453C523.807 578.864 525.928 577.87 528.082 577.035C526.921 572.441 525.624 567.875 524.626 563.243C521.15 576.446 518.091 628.501 517.703 634.834C519.292 635.387 521.096 635.723 522.239 637.083C526.937 641.38 533.081 650.828 534.897 655.594C537.731 662.894 536.157 656.737 537.965 667.456C533.805 674.149 536.581 671.717 528.996 675.252C528.328 675.832 521.454 681.736 517.923 686.674C517.087 687.651 517.349 689.011 517.237 690.204C516.677 697.298 521.755 702.285 517.158 728.091C509.515 761.536 502.337 749.097 504.7 763.977C505.86 765.138 507.365 766.119 507.944 767.728C510.284 777.153 495.279 796.654 488.101 797.898C486.866 802.197 485.144 806.347 483.074 810.313C484.758 815.635 482.932 821.199 482.558 826.579C484.239 846.96 490.054 838.858 482.778 857.747C481.98 859.896 480.154 861.385 478.795 863.164C479.365 870.757 482.968 872.44 478.358 887.725C478.877 890.906 479.451 894.112 480.196 897.246C485.47 903.03 481.08 918.009 474.063 921.15C474.245 925.362 474.641 929.582 475.635 933.69C476.886 933.553 478.142 933.428 479.402 933.312C479.964 932.534 480.421 931.661 481.157 931.038C484.211 930.424 490.016 931.154 490.155 933C489.565 933.366 488.929 933.653 488.296 933.944C481.762 949.848 486.841 958.845 488.708 962.159C493.445 962.473 499.405 961.808 503.972 965.573C504.08 966.005 504.197 966.454 504.313 966.92C516.735 966.094 520.508 977.353 522.808 982.4C525.235 987.627 525.666 995.957 525.773 996.624C526.605 997.817 527.964 998.616 528.509 1000.04C529.64 1002.04 529.964 1004.43 531.369 1006.29C535.611 1012.3 534.337 1015.09 532.562 1021.66C532.754 1021.81 533.136 1022.1 533.327 1022.25C533.406 1022.51 533.569 1023.02 533.651 1023.28C532.753 1024.95 530.637 1025.01 528.974 1025C527.481 1024.99 526.341 1023.75 524.853 1023.76C499.533 1022.55 494.444 1017.44 480.743 1017.11C476.93 1016.78 458.812 1015.01 451.695 1012.41C447.286 1010.42 436.185 1008.36 432.239 1006.82C430.455 1006.13 429.046 1004.68 427.146 1004.29C424.834 1003.71 422.534 1003.08 420.301 1002.26C418.342 988.59 417.262 986.073 420.925 952.261C417.373 950.944 416.727 951.227 418.513 943.263C422.69 926.533 420.293 919.019 419.378 905.177C419.3 902.541 419.94 899.947 419.985 897.327C418.651 892.249 415.768 873.22 417.112 869.016C415.815 866.358 410.606 847.206 410.318 839.27C406.853 835.657 405.783 812.714 405.798 808.602C404.231 807.812 402.692 806.702 402.201 804.926C400.147 798.344 400.703 779.737 408.93 776.736C409.05 775.318 407.72 774.52 407.2 773.355C402.262 763.183 407.813 754.616 413.483 741.864C411.127 725.81 416.14 698.965 418.319 692.718C421.189 684.511 417.744 685.529 416.967 678.381C415.001 669.852 423.595 670.42 432.319 670.182C428.944 652.728 427.007 643.857 423.878 615.972C410.375 638.087 406.272 616.47 400.826 591.374C395.181 563.519 395.241 576.541 396.434 555.462C396.515 554.795 396.23 443.606 406.755 436.535C408.609 430.523 418.648 407.566 421.795 405.155C426.485 396.715 432.676 389.239 438.656 381.696C438.248 379.638 440.144 378.399 441.774 377.725C442.468 375.792 444.178 373.879 443.246 371.738C443.816 369.58 446.053 369.048 447.866 368.361C449.559 366.291 452.032 364.674 452.715 361.942C453.82 358.383 455.712 355.002 458.632 352.62C463.596 344.691 466.919 335.727 468.278 326.459C467.721 325.897 467.214 325.294 466.752 324.667C467.164 324.085 467.651 323.565 468.22 323.132C469.506 282.666 467.511 288.384 438.436 217.232C437.354 219.918 436.186 222.575 435.134 225.277C435.783 226.088 436.585 226.844 436.885 227.876C436.357 229.926 435.234 231.759 434.519 233.747C435.479 235.427 434.265 237.044 433.662 238.607C432.955 240.137 432.606 242.2 430.685 242.632C407.47 297.9 414.38 281.549 403.549 318.887C404.859 320.221 406.098 321.76 407.89 322.467C409.009 321.415 409.982 320.093 411.433 319.477C412.514 318.991 413.895 320.271 413.333 321.377C412.099 324.223 405.283 327.343 405.312 331.871C405.217 336.362 404.277 340.769 403.171 345.102C403.075 348.075 404.568 350.898 404.759 353.829C403.715 357.804 402.435 361.783 400.285 365.317C398.601 368.236 395.903 370.614 395.225 374.045C394.14 373.87 393.008 373.201 391.911 373.55C391.657 374.22 391.511 374.926 391.345 375.625C390.372 375.405 389.408 375.193 388.443 374.984C387.067 381.385 384.48 380.6 379.519 383.658C378.65 385.246 377.44 386.589 376.284 387.974C375.96 387.766 375.639 387.562 375.327 387.362C374.3 389.092 373.148 390.747 371.989 392.397C374.423 398.289 369.923 399.235 368.579 402.214C366.538 406.235 364.367 410.193 362.205 414.151C368.516 418.087 374.504 423.207 370.371 429.798C363.815 440.557 356.682 437.167 346.537 443.689C345.867 445.793 344.657 447.652 343.576 449.556C343.304 451.886 340.11 458.804 333.219 458.524C322.499 469.152 295.3 479.8 298.748 500.182C300.219 501.141 309.131 505.451 303.618 510.215C301.376 511.625 293.682 508.73 291.227 505.6C288.802 501.938 288.136 491.89 287.967 487.513C286.91 488.419 285.929 489.405 284.985 490.427C285.464 506.318 294.148 503.951 290.852 513.749C289.581 516.244 282.858 510.045 280.32 507.657C277.181 504.19 277.137 505.719 273.908 494.194C273.268 492.036 273.322 489.766 272.985 487.562C271.144 501.116 276.745 503.463 276.12 510.651C275.886 513.557 272.224 516.939 267.887 510.198C263.843 503.539 259.54 489.492 261.529 481.895C252.902 488.582 254.111 493.394 249.903 494.834C239.404 498.812 247.578 477.978 257.471 470.374C259.658 468.344 262.303 466.898 264.456 464.831C265.076 464.199 266.016 464.191 266.818 463.962C266.675 462.106 265.8 461.423 268.913 460.033C278.111 447.372 303.185 440.777 310.345 435.738C310.049 433.834 310.574 431.959 310.57 430.071C307.414 416.681 305.26 416.199 303.796 413.048C297.733 400.769 306.253 396.064 319.04 397.548C319.967 393.498 320.949 389.461 321.996 385.44C322.603 383.477 321.485 381.32 322.525 379.436C324.242 376.434 327.714 375 331.003 374.542C331.568 372.376 332.108 370.209 332.653 368.043C328.961 359.332 328.124 358.545 331.472 355.096C337.442 348.468 336.103 347.922 336.046 346.339C334.604 336.448 337.527 319.803 345.056 306.665C346.013 304.698 346.129 302.461 346.35 300.32C345.946 299.654 345.185 298.952 345.581 298.108C346.48 294.989 346.828 292.885 349.153 294.083C349.427 295.289 349.577 296.52 349.519 297.758C352.675 297.471 355.806 297.01 358.945 296.582C366.072 273.9 379.512 254.739 386.813 221.129C386.131 219.306 385.782 221.094 387.245 212.938C387.32 212.152 388.218 211.986 388.755 211.595C389.333 209.604 389.586 207.524 390.301 205.579C391.545 204.319 393.515 204.905 395.067 205.084C395.32 203.962 395.628 202.847 395.774 201.707C395.774 201.707 388.56 198.686 382.043 195.038C376.128 191.034 371.419 184.324 364.945 181.804C360.924 185.866 357.024 190.095 352.409 193.504C343.871 198.568 343.599 183.004 331.36 177.937C326.015 177.126 308.019 179.038 303.135 174.137C303.127 173.064 303.135 172 303.168 170.935C309.787 164.179 312.582 164.883 315.638 162.158C324.383 155.115 333.464 148.5 342.246 141.502C340.358 139.115 340.428 135.76 341.011 132.915C334.528 131.315 327.829 130.387 321.58 127.976C321.372 127.581 321.169 127.186 320.965 126.799C323.075 123.414 324.17 125.436 326.628 124.155C393.221 89.6451 400.497 88.8675 438.644 97.2744C440.532 95.5031 442.411 93.7192 444.207 91.8525C444.324 89.6698 445.101 87.6117 445.596 85.5037C449.2 71.4948 447.82 72.3531 451.999 68.7852C450.534 57.5486 453.922 54.6889 457.883 53.1724C459.109 53.0557 460.336 53.2971 461.563 53.4051C461.23 52.5568 460.506 51.7419 460.702 50.7729C461.213 48.2613 460.469 45.7418 460.311 43.2303C457.589 17.0185 457.878 12.4309 463.089 -7.85354C463.413 -9.87024 462.581 -12.7766 464.944 -13.8203C469.177 -25.1556 475.605 -35.2097 492.895 -39.4005ZM593.384 354.204C593.702 376.399 599.003 367.979 597.368 382.178C597.185 383.559 597.647 384.914 597.688 386.294C597.949 396.213 596.406 391.251 598.915 395.375C599.912 396.556 599.896 398.348 598.907 399.537C599.612 409.775 599.427 405.8 600.549 409.179C601.641 412.088 601.006 423.51 603.601 425.166C606.416 427.445 607.984 430.895 608.379 434.447C609.776 437.798 611.801 440.862 613.26 444.193C613.98 446.234 616.104 447.186 617.219 448.962C618.641 450.75 619.215 453.016 620.47 454.903C625.959 461.942 628.765 470.545 631.789 478.823C650.105 471.605 668.197 463.821 686.318 456.129C683.99 451.543 679.993 448.221 676.7 444.379C675.773 443.464 675.906 442.097 675.54 440.957C674.945 439.835 674.001 438.966 673.111 438.088C672.496 437.993 671.851 437.997 671.294 437.744C671.102 437.191 670.99 436.638 670.874 436.089C666.174 432.252 654.569 429.045 648.694 427.669C647.293 427.79 645.883 428.243 644.582 427.445C643.722 423.783 645.668 422.805 652.756 415.749C645.97 409.487 639.608 402.793 633.276 396.078C632.178 396.219 631.288 395.666 631.006 394.593C632.12 392.614 633.841 391.121 635.509 389.629C630.652 384.116 625.941 378.473 621.413 372.69C620.012 377.38 619.371 382.311 617.438 386.839C616.606 386.955 615.517 387.171 615.18 386.152C612.083 376.932 617.319 376.262 612.436 368.544C609.335 365.111 603.857 365.292 597.691 359.621C596.199 357.863 594.715 356.092 593.384 354.204ZM522.58 542.926C523.145 542.551 523.719 542.189 524.293 541.832C523.087 539.3 521.869 536.771 520.705 534.223C521.324 537.121 521.956 540.023 522.58 542.926Z" fill="white"/>
</g>
<defs>
<clipPath id="clip0">
<rect width="1974.34" height="1693.36" fill="white"/>
</clipPath>
</defs>
</svg>
